Modeling
…
#Set up my own tuning grid
tree_grid <- grid_regular(cost_complexity(),
                          tree_depth(),
                          levels = c(10, 5))

tree_fits <- tree_wkf |> 
  tune_grid(resamples = diabetes_CV_folds,
            grid = tree_grid,
            metrics=metric_set(accuracy, mn_log_loss))

tree_fits |>
  collect_metrics() 

# A tibble: 100 × 8
   cost_complexity tree_depth .metric     .estimator  mean     n std_err .config
             <dbl>      <int> <chr>       <chr>      <dbl> <int>   <dbl> <chr>  
 1    0.0000000001          1 accuracy    binary     0.861     5 3.80e-4 Prepro…
 2    0.0000000001          1 mn_log_loss binary     0.403     5 6.93e-4 Prepro…
 3    0.000000001           1 accuracy    binary     0.861     5 3.80e-4 Prepro…
 4    0.000000001           1 mn_log_loss binary     0.403     5 6.93e-4 Prepro…
 5    0.00000001            1 accuracy    binary     0.861     5 3.80e-4 Prepro…
 6    0.00000001            1 mn_log_loss binary     0.403     5 6.93e-4 Prepro…
 7    0.0000001             1 accuracy    binary     0.861     5 3.80e-4 Prepro…
 8    0.0000001             1 mn_log_loss binary     0.403     5 6.93e-4 Prepro…
 9    0.000001              1 accuracy    binary     0.861     5 3.80e-4 Prepro…
10    0.000001              1 mn_log_loss binary     0.403     5 6.93e-4 Prepro…
# ℹ 90 more rows
…
tree_fits |>
  collect_metrics() |>
  filter(.metric == "mn_log_loss") |>
  arrange(mean)

# A tibble: 50 × 8
   cost_complexity tree_depth .metric     .estimator  mean     n std_err .config
             <dbl>      <int> <chr>       <chr>      <dbl> <int>   <dbl> <chr>  
 1    0.0000000001         11 mn_log_loss binary     0.356     5 7.45e-4 Prepro…
 2    0.000000001          11 mn_log_loss binary     0.356     5 7.45e-4 Prepro…
 3    0.00000001           11 mn_log_loss binary     0.356     5 7.45e-4 Prepro…
 4    0.0000001            11 mn_log_loss binary     0.356     5 7.45e-4 Prepro…
 5    0.000001             11 mn_log_loss binary     0.356     5 7.45e-4 Prepro…
 6    0.0000000001          8 mn_log_loss binary     0.356     5 7.49e-4 Prepro…
 7    0.000000001           8 mn_log_loss binary     0.356     5 7.49e-4 Prepro…
 8    0.00000001            8 mn_log_loss binary     0.356     5 7.49e-4 Prepro…
 9    0.0000001             8 mn_log_loss binary     0.356     5 7.49e-4 Prepro…
10    0.000001              8 mn_log_loss binary     0.356     5 7.49e-4 Prepro…
# ℹ 40 more rows
…
